<svg viewBox="0 0 62 75" width="62" xmlns="http://www.w3.org/2000/svg" aria-hidden="true" role="img">
<path d="m0 0h62v75h-62z" fill="none" ></path>
<path fill="#68cc45" stroke="#68cc45" d="m54 14h-46a7.5082 7.5082 0 0 0 -7.5 7.5v32a7.5082 7.5082 0 0 0 7.5 7.5h46a7.5082 7.5082 0 0 0 7.5-7.5v-32a7.5082 7.5082 0 0 0 -7.5-7.5zm-46 3h46a4.50491 4.50491 0 0 1 4.5 4.5v3.5h-55v-3.5a4.50491 4.50491 0 0 1 4.5-4.5zm46 41h-46a4.50491 4.50491 0 0 1 -4.5-4.5v-22.5h55v22.5a4.50491 4.50491 0 0 1 -4.5 4.5z">
</path>
<rect stroke="#68cc45" fill="#68cc45" height="10" rx="2.5" width="11" x="9.5" y="42"></rect></svg>